{
  "query": {
    "bool": {
      "must": [{ "range": { "metadata.event_timestamp": {"gte": "now-2h/h","lte": "now", "format": "epoch_millis" } }  },
               {"term":{"data.staging":true}}
              ]
    }
  },
  "size": 0,
  "aggs": { "per_hour": {
      "date_histogram": { "field": "metadata.event_timestamp", "interval": "1h",  "min_doc_count": 1, "extended_bounds": {
          "min": "now-1h/h","max": "now" } },
      "aggs": { "per_file_state":{
        "terms": {"field": "data.file_state", "size": 10 , "order": {"_count": "desc" }},
        "aggs" : { "per_vo":{
          "terms": {"field": "data.vo", "size":30, "order":{"_count":"desc"}},
          "aggs": { "per_endpnt":  {
            "terms": {"field":"data.endpnt", "size":100, "order":{"_count":"desc"}} ,
            "aggs":  {"per_source_se": {
              "terms": {"field":"data.source_se", "size":200, "order":{"_count":"desc"}},
              "aggs":  {"stage_only": {"filters": {"filters":{"stage": {"script": {"script": "doc['data.source_se'].value ==  doc['data.dest_se'].value"}},
		"transfer": {"script": {"script": "doc['data.source_se'].value != doc['data.dest_se'].value"}}}},
                     "aggs": {"unique_files":{"cardinality":{"field":"data.file_id"}},
			"sum_filesize":{"sum":{"field":"data.user_filesize"}},
			"avg_filesize":{"avg":{"field":"data.user_filesize"}},
			"min_filesize":{"min":{"field":"data.user_filesize"}},
			"max_filesize":{"max":{"field":"data.user_filesize"}},
			"min_duration":{"min":{"script":{"inline": "Period.between(LocalDate.ofEpochDay(doc['data.staging_finished'].date.getMillis() / 86400000L), LocalDate.ofEpochDay(doc['data.staging_start'].date.getMillis() / 86400000L)).getYears()"}}},
                        "max_duration":{"max":{"script":{"inline": "Period.between(LocalDate.ofEpochDay(doc['data.staging_finished'].date.getMillis() / 86400000L), LocalDate.ofEpochDay(doc['data.staging_start'].date.getMillis() / 86400000L)).getYears()"}}},
			"avg_duration":{"avg":{"script":{"inline": "Period.between(LocalDate.ofEpochDay(doc['data.staging_finished'].date.getMillis() / 86400000L), LocalDate.ofEpochDay(doc['data.staging_start'].date.getMillis() / 86400000L)).getYears()"}}},
			"sum_started":{"sum":{"field":"data.staging_start"}},
			"sum_finished":{"sum":{"field":"data.staging_finished"}}

			}
                       }
                     }
             	}
        	}
      	}
    	}
	}
}}}
}
}
}
