{
  "query": {
    "bool": {
      "must": [{ "range": { "metadata.event_timestamp": {"gte": "now-2h/h","lte": "now", "format": "epoch_millis" } }  },
		{"term":{"data.file_state":"SUBMITTED" } }
              ]
    }
  },
  "size": 0,
  "aggs": { "per_hour": {
      "date_histogram": { "field": "metadata.event_timestamp", "interval": "1h",  "min_doc_count": 1, "extended_bounds": {
          "min": "now-1h/h","max": "now" } },
    	 "aggs" : { "per_vo":{
          "terms": {"field": "data.vo", "size":30, "order":{"_count":"desc"}},
          "aggs": { "per_endpnt":  {
            "terms": {"field":"data.endpnt", "size":100, "order":{"_count":"desc"}} ,
            "aggs":  {"per_source_se": {
              "terms": {"field":"data.source_se", "size":200, "order":{"_count":"desc"}},
       		"aggs":  {"per_dest_se":{
		   "terms": {"field":"data.dest_se", "size":200, "order":{"_count":"desc"}},     
                     "aggs": {"unique_files":{"cardinality":{"field":"data.file_id"}}
			}
                       }
                     }
             	}
        	}
      	}
    	}
	}
	}
	}
}}}
}


